item_value_x,mserve,days_to_return,item_age,account_age,is_fake_email_x,order_count,total_items,total_revenue,return_count,return_revenue,cust_attr_q2_count_1,cust_attr_q2_revenue_1,cust_attr_q2_count_m,cust_attr_q2_revenue_m,return_q2_count,return_q2_revenue,rto_count,rto_revenue,FAKE_PG_m,USED_PRODUCT_m,DAMAGED_CTH_m,MBT_m,FAKE_PG_1,USED_PRODUCT_1,DAMAGED_CTH_1,MBT_1,avg_days_to_return,is_return_abuser,is_rto_abuser,is_blacklisted,is_fake_email_y,task_count,hardstop_returns,ret_perc,q2_perc,rto_prec,gp,q2_revenue_perc,DS_Pred,DS_Prob_Class1
584,1,18,0.0,2189,0.0,40.0,120.0,105390.74,24.0,21923.41,0.0,0.0,2.0,1559.0,2.0,1559.0,9.0,9185.28,0.0,2.0,0.0,0.0,0.0,0.0,0.0,0.0,1.0,0.0,0.0,0.0,0.0,3.0,26.0,0.2080202681943404,0.06720667067415716,0.08715452609973134,0.0,0.0,1.0,0.9174562942743435
381,5,4,138.0,2883,0.0,21.0,62.0,48406.53,24.0,19235.35,0.0,0.0,0.0,0.0,0.0,0.0,4.0,1894.02,0.0,0.0,0.0,0.0,0.0,0.0,0.0,0.0,1.0,0.0,0.0,0.0,0.0,1.0,11.0,0.39737097453587356,0.0,0.03912736566740066,0.0,0.0,1.0,0.6442509990719955
629,1,1,-11.0,846,0.0,5.0,11.0,5764.71,1.0,534.0,0.0,0.0,0.0,0.0,0.0,0.0,2.0,1623.0,0.0,0.0,0.0,0.0,0.0,0.0,0.0,0.0,0.0,0.0,0.0,0.0,0.0,1.0,0.0,0.09263258689509099,0.0,0.28154061522609114,0.0,0.0,1.0,0.8030781645263567
899,2,6,64.0,277,0.0,5.0,6.0,4374.0,1.0,759.0,0.0,0.0,0.0,0.0,0.0,0.0,1.0,719.0,0.0,0.0,0.0,0.0,0.0,0.0,0.0,0.0,0.0,0.0,0.0,0.0,0.0,2.0,0.0,0.17352537722908093,0.0,0.16438042981252857,0.0,0.0,1.0,0.8111406704660126
216,1,5,-18.0,158,0.0,6.0,19.0,27352.0,1.0,6190.0,0.0,0.0,0.0,0.0,0.0,0.0,0.0,0.0,0.0,0.0,0.0,0.0,0.0,0.0,0.0,0.0,18.0,0.0,0.0,0.0,0.0,1.0,0.0,0.22630886224042118,0.0,0.0,0.0,0.0,0.0,0.40389697065783564
850,5,3,104.0,1672,0.0,2.0,2.0,1478.95,0.0,0.0,0.0,0.0,0.0,0.0,0.0,0.0,0.0,0.0,0.0,0.0,0.0,0.0,0.0,0.0,0.0,0.0,0.0,0.0,0.0,0.0,0.0,1.0,0.0,0.0,0.0,0.0,0.0,0.0,0.0,0.25876224126976416
479,1,3,4.0,29,0.0,3.0,4.0,5221.0,0.0,0.0,0.0,0.0,0.0,0.0,0.0,0.0,0.0,0.0,0.0,0.0,0.0,0.0,0.0,0.0,0.0,0.0,0.0,0.0,0.0,0.0,0.0,1.0,0.0,0.0,0.0,0.0,0.0,0.0,0.0,0.44867465702692777
611,1,3,0.0,111,0.0,7.0,12.0,6847.0,9.0,5046.0,0.0,0.0,0.0,0.0,0.0,0.0,0.0,0.0,0.0,0.0,0.0,0.0,0.0,0.0,0.0,0.0,4.0,0.0,0.0,0.0,0.0,2.0,0.0,0.7369650942018402,0.0,0.0,0.0,0.0,0.0,0.21430503759415628
764,7,60,306.0,2713,0.0,20.0,46.0,39974.84,13.0,8027.19,1.0,724.39,2.0,1353.49,4.0,2298.49,2.0,12259.0,1.0,0.0,1.0,0.0,1.0,0.0,0.0,0.0,1.0,0.0,1.0,0.0,0.0,3.0,7.0,0.2008060570098592,0.2992296346283916,0.3066678941053923,9.459413881625549,0.31515908270212184,1.0,0.7089699487839508
639,1,7,0.0,339,0.0,148.0,253.0,294225.47,151.0,184994.16,8.0,9566.16,10.0,11889.16,22.0,34558.04,3.0,3350.0,4.0,1.0,2.0,3.0,3.0,1.0,2.0,2.0,6.0,1.0,1.0,0.0,1.0,12.0,62.0,0.6287496456374086,0.16904359058855287,0.011385825978967763,4.453541564025747,0.27681431007082574,1.0,0.7350926869881322
1749,1,67,0.0,25,0.0,2.0,2.0,2422.0,0.0,0.0,0.0,0.0,0.0,0.0,0.0,0.0,0.0,0.0,0.0,0.0,0.0,0.0,0.0,0.0,0.0,0.0,0.0,0.0,0.0,0.0,0.0,1.0,0.0,0.0,0.0,0.0,0.0,0.0,1.0,0.9510636719053572
399,1,6,0.0,2351,0.0,1.0,1.0,399.0,0.0,0.0,0.0,0.0,0.0,0.0,0.0,0.0,0.0,0.0,0.0,0.0,0.0,0.0,0.0,0.0,0.0,0.0,0.0,0.0,0.0,0.0,0.0,1.0,0.0,0.0,0.0,0.0,0.0,0.0,1.0,0.7583476647084372
1084,1,3,145.0,352,0.0,11.0,14.0,18129.02,1.0,2239.0,1.0,2239.0,1.0,2239.0,1.0,2239.0,0.0,0.0,0.0,0.0,1.0,0.0,0.0,0.0,1.0,0.0,1.0,0.0,0.0,0.0,0.0,1.0,0.0,0.123503642226662,1.0,0.0,5.929111940298507,1.0,1.0,0.8192393812887595
1368,1,1,0.0,724,0.0,72.0,126.0,96339.0699999999,56.0,45993.4,0.0,0.0,0.0,0.0,0.0,0.0,2.0,1299.9,0.0,0.0,0.0,0.0,0.0,0.0,0.0,0.0,2.0,0.0,0.0,0.0,0.0,2.0,0.0,0.4774117084584691,0.0,0.013492968117711758,0.0,0.0,0.0,0.17903783612833646
436,1,370,0.0,3,0.0,3.0,6.0,3035.6,0.0,0.0,0.0,0.0,0.0,0.0,0.0,0.0,0.0,0.0,0.0,0.0,0.0,0.0,0.0,0.0,0.0,0.0,0.0,0.0,0.0,0.0,0.0,2.0,0.0,0.0,0.0,0.0,0.0,0.0,0.0,0.3676498332225388
429,3,375,77.0,3,0.0,3.0,6.0,3035.6,0.0,0.0,0.0,0.0,0.0,0.0,0.0,0.0,0.0,0.0,0.0,0.0,0.0,0.0,0.0,0.0,0.0,0.0,0.0,0.0,0.0,0.0,0.0,2.0,0.0,0.0,0.0,0.0,0.0,0.0,1.0,0.8818810092235236
1975,1,5,0.0,0,0.0,1.0,1.0,1975.0,0.0,0.0,0.0,0.0,0.0,0.0,0.0,0.0,0.0,0.0,0.0,0.0,0.0,0.0,0.0,0.0,0.0,0.0,0.0,0.0,0.0,0.0,0.0,1.0,0.0,0.0,0.0,0.0,0.0,0.0,0.0,0.20704181966681823
349,1,5,0.0,1684,0.0,44.0,71.0,64460.44,17.0,16698.0,0.0,0.0,2.0,1741.6699999999996,2.0,1741.6699999999996,2.0,1498.0,0.0,0.0,1.0,1.0,0.0,0.0,0.0,0.0,1.0,0.0,0.0,0.0,0.0,2.0,0.0,0.2590426003918062,0.11707624739716972,0.023239059491371762,0.0,0.0,1.0,0.6196552175957519
1259,1,1,0.0,382,0.0,67.0,215.0,266662.31,56.0,75163.87,7.0,3567.16,8.0,3950.16,13.0,12874.16,46.0,61447.51,3.0,0.0,2.0,3.0,3.0,0.0,2.0,2.0,8.0,0.0,0.0,0.0,0.0,30.0,0.0,0.28186911753670774,0.1875510029937536,0.23043192718161035,12.504735515725642,0.2770790482641197,1.0,0.5875454179076961
602,1,0,0.0,2904,0.0,222.0,454.0,493062.11,156.0,192236.08,3.0,2836.1,3.0,2836.1,6.0,4923.1,18.0,20351.0,1.0,0.0,2.0,0.0,1.0,0.0,2.0,0.0,16.0,1.0,1.0,1.0,0.0,13.0,85.0,0.38988207793943036,0.023005685595434196,0.04127471891928585,43.76679866223024,0.5760801121244744,1.0,0.814579787330562
559,4,6,108.0,1763,0.0,18.0,39.0,28100.96,20.0,14748.19,0.0,0.0,0.0,0.0,0.0,0.0,0.0,0.0,0.0,0.0,0.0,0.0,0.0,0.0,0.0,0.0,2.0,0.0,0.0,0.0,0.0,4.0,5.0,0.5248286891266348,0.0,0.0,0.0,0.0,1.0,0.5700161025604787
749,2,2,159.0,1763,0.0,18.0,39.0,28100.96,20.0,14748.19,0.0,0.0,0.0,0.0,0.0,0.0,0.0,0.0,0.0,0.0,0.0,0.0,0.0,0.0,0.0,0.0,2.0,0.0,0.0,0.0,0.0,4.0,5.0,0.5248286891266348,0.0,0.0,0.0,0.0,0.0,0.17106789558596294
948,5,5,84.0,1757,0.0,18.0,39.0,28100.96,20.0,14748.19,0.0,0.0,0.0,0.0,0.0,0.0,0.0,0.0,0.0,0.0,0.0,0.0,0.0,0.0,0.0,0.0,2.0,0.0,0.0,0.0,0.0,4.0,5.0,0.5248286891266348,0.0,0.0,0.0,0.0,0.0,0.31296484328872426
530,1,2,0.0,0,0.0,31.0,39.0,15361.0,3.0,1578.0,0.0,0.0,0.0,0.0,0.0,0.0,0.0,0.0,0.0,0.0,0.0,0.0,0.0,0.0,0.0,0.0,3.0,0.0,0.0,0.0,0.0,34.0,0.0,0.10272768699954431,0.0,0.0,0.0,0.0,0.0,0.2462577092656044
629,1,18402,0.0,2119,0.0,13.0,20.0,13999.15,8.0,6435.08,0.0,0.0,0.0,0.0,0.0,0.0,0.0,0.0,0.0,0.0,0.0,0.0,0.0,0.0,0.0,0.0,2.0,0.0,1.0,0.0,0.0,1.0,6.0,0.459676480357736,0.0,0.0,0.0,0.0,1.0,0.9435742017010929
599,1,6,113.0,1163,0.0,31.0,116.0,71798.95,34.0,21065.83,0.0,0.0,1.0,319.0,1.0,319.0,1.0,599.0,0.0,1.0,0.0,0.0,0.0,0.0,0.0,0.0,0.0,0.0,0.0,0.0,0.0,3.0,4.0,0.29340025167498973,0.0142669517568656,0.00834274038826473,0.0,0.0,1.0,0.592471585326546
5599,1,1,93.0,853,0.0,4.0,9.0,19852.0,0.0,0.0,0.0,0.0,0.0,0.0,0.0,0.0,0.0,0.0,0.0,0.0,0.0,0.0,0.0,0.0,0.0,0.0,0.0,0.0,0.0,0.0,0.0,1.0,0.0,0.0,0.0,0.0,0.0,0.0,0.0,0.35955013725844304
548,1,0,230.0,1411,0.0,3.0,3.0,1721.0,0.0,0.0,0.0,0.0,0.0,0.0,0.0,0.0,0.0,0.0,0.0,0.0,0.0,0.0,0.0,0.0,0.0,0.0,0.0,0.0,0.0,0.0,0.0,2.0,0.0,0.0,0.0,0.0,0.0,0.0,0.0,0.25841379212280247
1374,3,0,103.0,2040,0.0,248.0,453.0,322171.7,78.0,62318.91,3.0,2302.44,4.0,3953.26,4.0,3953.26,24.0,12391.72,0.0,0.0,3.0,1.0,0.0,0.0,2.0,1.0,7.0,0.0,1.0,0.0,0.0,14.0,26.0,0.19343384288564142,0.052012591977002184,0.038463092816656455,44.70033778901734,0.5824155254144681,0.0,0.052115958969638186
1519,3,0,350.0,94,0.0,5.0,5.0,7065.0,3.0,4557.0,0.0,0.0,0.0,0.0,0.0,0.0,0.0,0.0,0.0,0.0,0.0,0.0,0.0,0.0,0.0,0.0,0.0,0.0,0.0,0.0,0.0,2.0,0.0,0.6450106157112526,0.0,0.0,0.0,0.0,0.0,0.40382258966946977
687,2,0,253.0,2055,0.0,13.0,29.0,21593.12,5.0,3385.0,0.0,0.0,0.0,0.0,0.0,0.0,0.0,0.0,0.0,0.0,0.0,0.0,0.0,0.0,0.0,0.0,3.0,0.0,0.0,0.0,0.0,1.0,1.0,0.15676289484798864,0.0,0.0,0.0,0.0,1.0,0.7491177837068768
1346,1,0,0.0,146,0.0,2.0,4.0,4273.0,2.0,2619.0,0.0,0.0,0.0,0.0,0.0,0.0,0.0,0.0,0.0,0.0,0.0,0.0,0.0,0.0,0.0,0.0,0.0,0.0,0.0,0.0,0.0,3.0,0.0,0.6129183243622748,0.0,0.0,0.0,0.0,0.0,0.45280791936422043
893,1,51,0.0,2049,0.0,9.0,20.0,15325.0,11.0,8476.0,0.0,0.0,0.0,0.0,0.0,0.0,0.0,0.0,0.0,0.0,0.0,0.0,0.0,0.0,0.0,0.0,5.0,0.0,0.0,0.0,0.0,1.0,0.0,0.5530831973898858,0.0,0.0,0.0,0.0,1.0,0.9440950414356791
1748,1,13,0.0,629,0.0,10.0,11.0,16283.32,3.0,4459.66,0.0,0.0,1.0,2399.0,1.0,2399.0,1.0,1049.0,0.0,1.0,0.0,0.0,0.0,0.0,0.0,0.0,1.0,0.0,0.0,0.0,0.0,3.0,2.0,0.2738790369531521,0.5225377658824338,0.0644217518294795,0.0,0.0,1.0,0.6937254104371856
1819,1,1,4.0,374,0.0,8.0,15.0,17920.0,6.0,7816.0,0.0,0.0,0.0,0.0,0.0,0.0,1.0,839.0,0.0,0.0,0.0,0.0,0.0,0.0,0.0,0.0,1.0,0.0,0.0,0.0,0.0,1.0,0.0,0.4361607142857143,0.0,0.04681919642857143,0.0,0.0,0.0,0.45309842500914344
1199,1,5,81.0,1076,0.0,14.0,33.0,36422.38,8.0,7267.0,0.0,0.0,0.0,0.0,0.0,0.0,0.0,0.0,0.0,0.0,0.0,0.0,0.0,0.0,0.0,0.0,1.0,0.0,0.0,0.0,0.0,7.0,0.0,0.19952018511695283,0.0,0.0,0.0,0.0,0.0,0.33472444958316566
779,5,0,111.0,1076,0.0,14.0,33.0,36422.38,8.0,7267.0,0.0,0.0,0.0,0.0,0.0,0.0,0.0,0.0,0.0,0.0,0.0,0.0,0.0,0.0,0.0,0.0,1.0,0.0,0.0,0.0,0.0,7.0,0.0,0.19952018511695283,0.0,0.0,0.0,0.0,0.0,0.07903196244481014
2799,2,3,479.0,2239,0.0,77.0,98.0,154684.77,20.0,23665.93,0.0,0.0,0.0,0.0,1.0,1689.0,7.0,6964.0,0.0,0.0,0.0,0.0,0.0,0.0,0.0,0.0,0.0,0.0,0.0,0.0,0.0,3.0,6.0,0.1529945708294359,0.07474234078671987,0.04502059252504303,0.0,0.0,0.0,0.21025732803972816
2339,1,1,3.0,489,0.0,1.0,1.0,2339.0,0.0,0.0,0.0,0.0,0.0,0.0,0.0,0.0,0.0,0.0,0.0,0.0,0.0,0.0,0.0,0.0,0.0,0.0,0.0,0.0,0.0,0.0,0.0,1.0,0.0,0.0,0.0,0.0,0.0,0.0,1.0,0.6635163223590714
749,5,7,270.0,21,0.0,6.0,8.0,6467.0,1.0,1477.0,0.0,0.0,0.0,0.0,0.0,0.0,0.0,0.0,0.0,0.0,0.0,0.0,0.0,0.0,0.0,0.0,1.0,0.0,0.0,0.0,0.0,1.0,0.0,0.22839028916035256,0.0,0.0,0.0,0.0,0.0,0.26755271215702475
719,1,15,345.0,1590,0.0,23.0,40.0,28434.7,12.0,9191.35,0.0,0.0,0.0,0.0,0.0,0.0,1.0,729.0,0.0,0.0,0.0,0.0,0.0,0.0,0.0,0.0,1.0,0.0,0.0,0.0,0.0,2.0,0.0,0.3232441348071195,0.0,0.025637689161482274,0.0,0.0,0.0,0.23623818864741655
2379,1,0,0.0,1562,0.0,2.0,4.0,3914.0,0.0,0.0,0.0,0.0,0.0,0.0,0.0,0.0,0.0,0.0,0.0,0.0,0.0,0.0,0.0,0.0,0.0,0.0,0.0,0.0,0.0,0.0,0.0,1.0,0.0,0.0,0.0,0.0,0.0,0.0,0.0,0.2160142077357971
997,2,0,47.0,999,0.0,14.0,26.0,25675.62,5.0,4135.0,1.0,909.0,1.0,909.0,1.0,909.0,0.0,0.0,0.0,0.0,0.0,1.0,0.0,0.0,0.0,1.0,1.0,0.0,0.0,0.0,0.0,1.0,0.0,0.16104771764031406,0.17800940883880156,0.0,14.32222074468085,1.0,0.0,0.26362739972734744
646,1,0,0.0,84,0.0,1.0,3.0,2244.0,0.0,0.0,0.0,0.0,0.0,0.0,0.0,0.0,0.0,0.0,0.0,0.0,0.0,0.0,0.0,0.0,0.0,0.0,0.0,0.0,0.0,0.0,0.0,1.0,0.0,0.0,0.0,0.0,0.0,0.0,0.0,0.3638945041313283
619,1,0,0.0,61,0.0,4.0,13.0,10881.03,2.0,3287.0,0.0,0.0,0.0,0.0,1.0,2148.0,0.0,0.0,0.0,0.0,0.0,0.0,0.0,0.0,0.0,0.0,0.0,0.0,0.0,0.0,0.0,1.0,0.0,0.302085372432573,0.6522041768886968,0.0,0.0,0.0,1.0,0.6962680492807694
279,2,0,22.0,2,0.0,6.0,12.0,5616.05,3.0,1577.15,0.0,0.0,0.0,0.0,0.0,0.0,0.0,0.0,0.0,0.0,0.0,0.0,0.0,0.0,0.0,0.0,1.0,0.0,0.0,0.0,0.0,3.0,0.0,0.28082905244789486,0.0,0.0,0.0,0.0,0.0,0.039735995732236205
647,1,0,0.0,2255,0.0,114.0,172.0,186927.75,50.0,51297.86,1.0,1174.88,2.0,1823.88,5.0,4638.17,5.0,5889.95,0.0,0.0,2.0,0.0,0.0,0.0,1.0,0.0,1.0,0.0,0.0,0.0,0.0,10.0,23.0,0.27442613523139286,0.08865599167158078,0.031509232845310556,42.123357142857145,0.25330679988012517,0.0,0.3783029293359324
210,1,0,0.0,1656,0.0,35.0,65.0,45099.63000000001,12.0,8505.0,0.0,0.0,0.0,0.0,0.0,0.0,0.0,0.0,0.0,0.0,0.0,0.0,0.0,0.0,0.0,0.0,5.0,0.0,1.0,0.0,0.0,6.0,30.0,0.1885824783928382,0.0,0.0,0.0,0.0,0.0,0.3950306489146641
584,2,0,20.0,1903,0.0,94.0,204.0,327187.94,86.0,161848.5,3.0,2683.9,5.0,6737.58,9.0,16409.46,1.0,576.45,0.0,0.0,3.0,2.0,0.0,0.0,3.0,0.0,0.0,0.0,0.0,0.0,0.0,2.0,7.0,0.4946652373556311,0.10341493926613221,0.001761831441586753,21.402907593805022,0.16355809392874598,0.0,0.051553946630437573
847,1,0,170.0,601,0.0,19.0,36.0,28828.83,15.0,12518.95,0.0,0.0,0.0,0.0,0.0,0.0,1.0,847.0,0.0,0.0,0.0,0.0,0.0,0.0,0.0,0.0,1.0,0.0,0.0,0.0,0.0,1.0,0.0,0.43425106048355067,0.0,0.02938031130642485,0.0,0.0,0.0,0.27587233770796377
683,1,1,0.0,897,0.0,4.0,13.0,9485.9,2.0,1491.9,0.0,0.0,0.0,0.0,0.0,0.0,0.0,0.0,0.0,0.0,0.0,0.0,0.0,0.0,0.0,0.0,1.0,0.0,0.0,0.0,0.0,1.0,0.0,0.15727553526813481,0.0,0.0,0.0,0.0,0.0,0.45068338412933495
503,1,1,102.0,1956,0.0,38.0,86.0,75998.07,9.0,7236.0,0.0,0.0,0.0,0.0,0.0,0.0,0.0,0.0,0.0,0.0,0.0,0.0,0.0,0.0,0.0,0.0,1.0,0.0,0.0,0.0,0.0,4.0,2.0,0.09521294422345199,0.0,0.0,0.0,0.0,0.0,0.24551051583302858
3695,1,0,94.0,517,0.0,9.0,19.0,24708.0,5.0,3210.0,0.0,0.0,0.0,0.0,0.0,0.0,3.0,6082.0,0.0,0.0,0.0,0.0,0.0,0.0,0.0,0.0,0.0,0.0,0.0,0.0,0.0,1.0,0.0,0.129917435648373,0.0,0.24615509146835032,0.0,0.0,1.0,0.8333082571186815
1574,1,0,0.0,1785,0.0,7.0,11.0,14538.42,0.0,0.0,0.0,0.0,0.0,0.0,0.0,0.0,0.0,0.0,0.0,0.0,0.0,0.0,0.0,0.0,0.0,0.0,0.0,0.0,0.0,0.0,0.0,1.0,0.0,0.0,0.0,0.0,0.0,0.0,0.0,0.4201720623588537
1649,3,0,36.0,1256,0.0,11.0,32.0,23374.93,2.0,2255.55,0.0,0.0,0.0,0.0,0.0,0.0,0.0,0.0,0.0,0.0,0.0,0.0,0.0,0.0,0.0,0.0,0.0,0.0,0.0,0.0,0.0,1.0,1.0,0.09649440661426581,0.0,0.0,0.0,0.0,0.0,0.27046942294670134
462,1,6,0.0,489,1.0,42.0,174.0,208961.23,130.0,172357.77,4.0,3582.97,5.0,4424.97,10.0,11811.85,4.0,2115.0,2.0,0.0,1.0,2.0,2.0,0.0,1.0,1.0,2.0,0.0,0.0,0.0,0.0,6.0,0.0,0.8248313335445048,0.06878692942018934,0.010121494786377357,3.482834845948217,0.3033369031946731,0.0,0.32470738193281823
382,3,0,233.0,2172,0.0,5.0,19.0,13784.0,0.0,0.0,0.0,0.0,0.0,0.0,0.0,0.0,8.0,6391.0,0.0,0.0,0.0,0.0,0.0,0.0,0.0,0.0,0.0,0.0,0.0,0.0,0.0,2.0,0.0,0.0,0.0,0.4636535113174695,0.0,0.0,0.0,0.29749284694865386
2483,5,0,335.0,0,0.0,2.0,15.0,11559.0,0.0,0.0,0.0,0.0,0.0,0.0,0.0,0.0,0.0,0.0,0.0,0.0,0.0,0.0,0.0,0.0,0.0,0.0,0.0,0.0,0.0,0.0,0.0,1.0,0.0,0.0,0.0,0.0,0.0,0.0,0.0,0.3442820416549904
1649,2,0,94.0,1833,0.0,10.0,20.0,25357.73,7.0,6279.84,0.0,0.0,0.0,0.0,0.0,0.0,0.0,0.0,0.0,0.0,0.0,0.0,0.0,0.0,0.0,0.0,0.0,0.0,0.0,0.0,0.0,1.0,5.0,0.24764992765519628,0.0,0.0,0.0,0.0,0.0,0.26544162193503057
719,1,0,94.0,1714,0.0,3.0,4.0,3034.0,0.0,0.0,0.0,0.0,0.0,0.0,0.0,0.0,1.0,719.0,0.0,0.0,0.0,0.0,0.0,0.0,0.0,0.0,0.0,0.0,0.0,0.0,0.0,1.0,0.0,0.0,0.0,0.23698088332234674,0.0,0.0,0.0,0.12300844423792143
1199,1,0,0.0,603,0.0,11.0,13.0,12988.55,1.0,1287.0,0.0,0.0,0.0,0.0,0.0,0.0,0.0,0.0,0.0,0.0,0.0,0.0,0.0,0.0,0.0,0.0,0.0,0.0,0.0,0.0,0.0,2.0,1.0,0.09908727302123795,0.0,0.0,0.0,0.0,0.0,0.35602130684878486
1812,1,3,104.0,1594,0.0,1.0,2.0,2396.0,0.0,0.0,0.0,0.0,0.0,0.0,0.0,0.0,0.0,0.0,0.0,0.0,0.0,0.0,0.0,0.0,0.0,0.0,0.0,0.0,0.0,0.0,0.0,2.0,0.0,0.0,0.0,0.0,0.0,0.0,1.0,0.6006645962620537
824,2,18402,51.0,98,0.0,8.0,12.0,9580.3,2.0,1609.7,0.0,0.0,0.0,0.0,0.0,0.0,1.0,512.1,0.0,0.0,0.0,0.0,0.0,0.0,0.0,0.0,17.0,0.0,0.0,0.0,0.0,1.0,0.0,0.16802187822928302,0.0,0.05345344091521143,0.0,0.0,0.0,0.11741601767819497
200,1,0,0.0,1408,0.0,10.0,14.0,6868.45,2.0,918.1,0.0,0.0,0.0,0.0,0.0,0.0,0.0,0.0,0.0,0.0,0.0,0.0,0.0,0.0,0.0,0.0,2.0,0.0,0.0,0.0,0.0,1.0,0.0,0.13366916844411766,0.0,0.0,0.0,0.0,0.0,0.025137369045129532
594,1,0,17.0,2399,0.0,67.0,141.0,206604.58,28.0,60980.28,2.0,4700.280000000002,2.0,4700.280000000002,2.0,4700.280000000002,16.0,23166.120000000006,0.0,0.0,0.0,2.0,0.0,0.0,0.0,2.0,3.0,0.0,0.0,0.0,0.0,15.0,44.0,0.2951545411045583,0.09698981273645912,0.112127814397919,9.543865648805463,1.0,0.0,0.17306882819008035
960,2,4,60.0,0,0.0,8.0,10.0,11181.0,1.0,757.0,0.0,0.0,0.0,0.0,0.0,0.0,4.0,4847.0,0.0,0.0,0.0,0.0,0.0,0.0,0.0,0.0,1.0,0.0,1.0,0.0,0.0,1.0,0.0,0.06770414095340309,0.0,0.43350326446650567,0.0,0.0,1.0,0.9407079653231155
1732,1,2,0.0,1985,0.0,30.0,44.0,66659.4,14.0,18767.23,0.0,0.0,0.0,0.0,0.0,0.0,0.0,0.0,0.0,0.0,0.0,0.0,0.0,0.0,0.0,0.0,6.0,0.0,0.0,0.0,0.0,1.0,9.0,0.2815391377660165,0.0,0.0,0.0,0.0,0.0,0.45611627838280194
3499,1,2,0.0,280,0.0,29.0,45.0,51006.57,9.0,10335.12,0.0,0.0,0.0,0.0,0.0,0.0,0.0,0.0,0.0,0.0,0.0,0.0,0.0,0.0,0.0,0.0,4.0,0.0,0.0,0.0,0.0,2.0,0.0,0.20262330911488463,0.0,0.0,0.0,0.0,0.0,0.4800333948166628
1319,1,0,8.0,185,0.0,7.0,11.0,7171.75,3.0,2073.5,0.0,0.0,0.0,0.0,0.0,0.0,0.0,0.0,0.0,0.0,0.0,0.0,0.0,0.0,0.0,0.0,0.0,0.0,0.0,0.0,0.0,1.0,1.0,0.2891205075469725,0.0,0.0,0.0,0.0,0.0,0.11975701467357842
1374,1,0,0.0,645,0.0,12.0,21.0,21506.8,6.0,8173.33,1.0,893.0,1.0,893.0,1.0,893.0,0.0,0.0,1.0,0.0,0.0,0.0,1.0,0.0,0.0,0.0,0.0,0.0,0.0,0.0,0.0,4.0,0.0,0.38003468670374024,0.14621146863012982,0.0,4.789321120689655,1.0,0.0,0.403068378330247
1115,1,1,0.0,159,0.0,41.0,97.0,82082.70999999999,20.0,16089.48,0.0,0.0,0.0,0.0,1.0,822.0,8.0,5481.75,0.0,0.0,0.0,0.0,0.0,0.0,0.0,0.0,1.0,0.0,0.0,0.0,0.0,2.0,0.0,0.19601545806662574,0.05551122151121771,0.06678324826263655,0.0,0.0,0.0,0.3602936754979901
1759,1,0,44.0,647,0.0,12.0,21.0,21506.8,6.0,8173.33,1.0,893.0,1.0,893.0,1.0,893.0,0.0,0.0,1.0,0.0,0.0,0.0,1.0,0.0,0.0,0.0,0.0,0.0,0.0,0.0,0.0,4.0,0.0,0.38003468670374024,0.14621146863012982,0.0,4.789321120689655,1.0,1.0,0.5946224128798384
2099,1,6,0.0,1567,0.0,6.0,10.0,12533.3,4.0,5540.65,0.0,0.0,0.0,0.0,0.0,0.0,0.0,0.0,0.0,0.0,0.0,0.0,0.0,0.0,0.0,0.0,24.0,0.0,0.0,0.0,0.0,1.0,4.0,0.4420743140274309,0.0,0.0,0.0,0.0,1.0,0.7901615683488901
359,1,0,-7.0,978,0.0,263.0,511.0,359437.4700000001,92.0,70091.64,3.0,2302.44,3.0,2302.44,3.0,2302.44,28.0,14665.670000000002,0.0,0.0,2.0,1.0,0.0,0.0,2.0,1.0,7.0,0.0,1.0,0.0,0.0,15.0,28.0,0.19500370954647545,0.030347488656288547,0.04080172832287073,49.61708092485551,1.0,1.0,0.5722328998897434
874,1,0,0.0,1762,0.0,4.0,5.0,3842.0,1.0,524.0,0.0,0.0,0.0,0.0,0.0,0.0,0.0,0.0,0.0,0.0,0.0,0.0,0.0,0.0,0.0,0.0,0.0,0.0,0.0,0.0,0.0,1.0,0.0,0.13638729828214471,0.0,0.0,0.0,0.0,0.0,0.17624974048165115
210,1,1,0.0,2254,0.0,10.0,15.0,15085.0,9.0,10312.0,0.0,0.0,1.0,1402.0,2.0,2801.0,0.0,0.0,0.0,1.0,0.0,0.0,0.0,0.0,0.0,0.0,3.0,0.0,0.0,0.0,0.0,1.0,1.0,0.6835929731521379,0.24967774412041568,0.0,0.0,0.0,0.0,0.04741780397896492
6699,1,0,0.0,1450,0.0,281.0,770.0,1371351.68,214.0,461346.6,10.0,39068.0,17.0,62045.0,29.0,101159.0,18.0,48794.25,9.0,4.0,2.0,2.0,6.0,1.0,1.0,2.0,2.0,0.0,0.0,0.0,0.0,35.0,245.0,0.3364174243035893,0.20484849510748093,0.035581135540665984,10.389722041948575,0.3862038968356745,1.0,0.7206831256217437
854,1,0,87.0,2152,0.0,7.0,13.0,17281.24,2.0,2803.28,0.0,0.0,0.0,0.0,0.0,0.0,0.0,0.0,0.0,0.0,0.0,0.0,0.0,0.0,0.0,0.0,7.0,0.0,0.0,0.0,0.0,1.0,1.0,0.16221521140844058,0.0,0.0,0.0,0.0,1.0,0.5859695346427883
299,1,1,30.0,314,0.0,16.0,21.0,12173.74,1.0,314.0,0.0,0.0,0.0,0.0,0.0,0.0,5.0,4234.58,0.0,0.0,0.0,0.0,0.0,0.0,0.0,0.0,0.0,0.0,0.0,0.0,0.0,4.0,0.0,0.025793223775109377,0.0,0.34784544437453074,0.0,0.0,0.0,0.442550150015789
121,1,0,48.0,1548,0.0,32.0,93.0,65526.75,16.0,13212.45,1.0,818.0,1.0,818.0,2.0,1806.0,1.0,1051.0,0.0,0.0,1.0,0.0,0.0,0.0,1.0,0.0,1.0,0.0,0.0,0.0,0.0,1.0,0.0,0.20163444700065242,0.12471590334861044,0.016039251145524538,24.257776847362063,0.4529346622369878,1.0,0.7572754129651993
1312,2,0,60.0,690,0.0,17.0,36.0,34692.0,10.0,10248.0,0.0,0.0,0.0,0.0,0.0,0.0,0.0,0.0,0.0,0.0,0.0,0.0,0.0,0.0,0.0,0.0,0.0,0.0,0.0,0.0,0.0,1.0,0.0,0.29539951573849876,0.0,0.0,0.0,0.0,0.0,0.25092541475382124
279,1,5,0.0,3256,0.0,29.0,95.0,62305.09,44.0,33011.8,1.0,879.9,3.0,2190.35,6.0,4053.05,0.0,0.0,0.0,0.0,2.0,1.0,0.0,0.0,0.0,1.0,0.0,0.0,1.0,0.0,0.0,13.0,9.0,0.5298411413898929,0.11974168686624542,0.0,13.597714577916594,0.21709576738505568,0.0,0.11101132031511168
1249,1,4,0.0,1641,0.0,11.0,15.0,12270.95,9.0,6425.0,0.0,0.0,0.0,0.0,0.0,0.0,0.0,0.0,0.0,0.0,0.0,0.0,0.0,0.0,0.0,0.0,7.0,0.0,0.0,0.0,0.0,2.0,5.0,0.5235943427362999,0.0,0.0,0.0,0.0,0.0,0.2258891080844034
1349,1,0,0.0,342,0.0,42.0,59.0,39976.66,21.0,14439.78,0.0,0.0,0.0,0.0,0.0,0.0,6.0,4352.65,0.0,0.0,0.0,0.0,0.0,0.0,0.0,0.0,8.0,0.0,0.0,0.0,0.0,4.0,10.0,0.3612052632711187,0.0,0.10887978135241912,0.0,0.0,0.0,0.055904209605199186
703,1,3,0.0,0,0.0,6.0,23.0,13839.0,15.0,8893.0,0.0,0.0,0.0,0.0,1.0,459.0,0.0,0.0,0.0,0.0,0.0,0.0,0.0,0.0,0.0,0.0,3.0,0.0,0.0,0.0,0.0,1.0,0.0,0.6426042344100007,0.06451063522332291,0.0,0.0,0.0,1.0,0.6724489974348402
899,1,13,0.0,1389,0.0,6.0,21.0,21135.57,8.0,8198.14,0.0,0.0,0.0,0.0,2.0,1560.45,0.0,0.0,0.0,0.0,0.0,0.0,0.0,0.0,0.0,0.0,12.0,0.0,0.0,0.0,0.0,1.0,0.0,0.3878835536491327,0.19120133443729406,0.0,0.0,0.0,1.0,0.7192987972161832
764,1,7,2.0,1010,0.0,29.0,59.0,54893.5,21.0,21743.25,1.0,1439.0,1.0,1439.0,3.0,3038.0,2.0,2203.0,0.0,1.0,0.0,0.0,0.0,1.0,0.0,0.0,1.0,0.0,0.0,0.0,0.0,4.0,0.0,0.396098809512966,0.16460260884738742,0.040132256095894776,7.0714589293385375,0.4736668861092824,0.0,0.15485537847016737
329,1,15,4.0,2201,0.0,35.0,104.0,43135.66,17.0,7884.62,0.0,0.0,0.0,0.0,0.0,0.0,0.0,0.0,0.0,0.0,0.0,0.0,0.0,0.0,0.0,0.0,3.0,0.0,0.0,0.0,0.0,1.0,3.0,0.18278658539129805,0.0,0.0,0.0,0.0,1.0,0.7351724353152086
358,2,9,50.0,423,0.0,4.0,7.0,4538.85,1.0,1287.0,0.0,0.0,0.0,0.0,0.0,0.0,0.0,0.0,0.0,0.0,0.0,0.0,0.0,0.0,0.0,0.0,14.0,0.0,0.0,0.0,0.0,2.0,1.0,0.2835520010575366,0.0,0.0,0.0,0.0,0.0,0.07755983581919994
1169,3,74,136.0,1834,0.0,16.0,34.0,28479.2,5.0,4035.05,0.0,0.0,0.0,0.0,1.0,796.95,0.0,0.0,0.0,0.0,0.0,0.0,0.0,0.0,0.0,0.0,1.0,0.0,0.0,0.0,0.0,3.0,1.0,0.14168410629512065,0.20790338311238352,0.0,0.0,0.0,1.0,0.8600643726973173
559,1,9,0.0,557,0.0,4.0,7.0,6195.0,3.0,3311.0,0.0,0.0,0.0,0.0,0.0,0.0,1.0,757.0,0.0,0.0,0.0,0.0,0.0,0.0,0.0,0.0,13.0,0.0,0.0,0.0,0.0,0.0,3.0,0.5344632768361582,0.0,0.1221953188054883,0.0,0.0,1.0,0.9938089973317245
539,1,1,85.0,1094,0.0,20.0,42.0,28849.2,25.0,18627.2,0.0,0.0,1.0,1718.0,1.0,1718.0,3.0,1914.0,0.0,1.0,0.0,0.0,0.0,0.0,0.0,0.0,1.0,0.0,0.0,0.0,0.0,1.0,2.0,0.645674750079725,0.10100541514942266,0.06634499396863691,0.0,0.0,0.0,0.2832062792554986
189,1,2,0.0,651,0.0,38.0,47.0,59649.93000000001,23.0,36148.5,2.0,1488.0,2.0,1488.0,3.0,3637.0,0.0,0.0,0.0,1.0,1.0,0.0,0.0,1.0,1.0,0.0,2.0,1.0,0.0,0.0,0.0,3.0,11.0,0.6060107698366116,0.07375311178774664,0.0,6.9696562596753715,0.40912840252955734,0.0,0.1650699625531436
849,1,1,16.0,1046,0.0,17.0,36.0,19569.43,6.0,3026.9,0.0,0.0,0.0,0.0,0.0,0.0,8.0,4133.67,0.0,0.0,0.0,0.0,0.0,0.0,0.0,0.0,8.0,0.0,0.0,0.0,0.0,2.0,2.0,0.1546749189935527,0.0,0.21123098628830783,0.0,0.0,0.0,0.4640306644378493
849,1,1,21.0,1046,0.0,17.0,36.0,19569.43,6.0,3026.9,0.0,0.0,0.0,0.0,0.0,0.0,8.0,4133.67,0.0,0.0,0.0,0.0,0.0,0.0,0.0,0.0,8.0,0.0,0.0,0.0,0.0,2.0,2.0,0.1546749189935527,0.0,0.21123098628830783,0.0,0.0,1.0,0.5206649279773146
649,1,3,90.0,1995,0.0,4.0,8.0,6240.0,1.0,1639.0,0.0,0.0,0.0,0.0,0.0,0.0,0.0,0.0,0.0,0.0,0.0,0.0,0.0,0.0,0.0,0.0,1.0,0.0,0.0,0.0,0.0,1.0,0.0,0.2626602564102564,0.0,0.0,0.0,0.0,1.0,0.5031580207254678
811,3,1,418.0,1260,0.0,7.0,10.0,7316.9,3.0,2794.9,2.0,795.9,2.0,795.9,2.0,795.9,1.0,883.0,2.0,0.0,0.0,0.0,2.0,0.0,0.0,0.0,14.0,0.0,0.0,0.0,0.0,2.0,0.0,0.381978706829395,0.32033832549578034,0.12067952274870505,1.7463720668003873,1.0,0.0,0.41010418659818987
844,3,6,406.0,1351,0.0,25.0,98.0,77715.36,40.0,33418.28,1.0,555.0,1.0,555.0,5.0,3839.0,0.0,0.0,0.0,0.0,0.0,1.0,0.0,0.0,0.0,1.0,4.0,0.0,0.0,0.0,0.0,2.0,26.0,0.43000868811519366,0.13206427322975017,0.0,33.44710629481302,0.14456889815056004,0.0,0.10358837550634517
499,1,0,245.0,62,0.0,5.0,9.0,4720.0,2.0,993.0,0.0,0.0,0.0,0.0,0.0,0.0,0.0,0.0,0.0,0.0,0.0,0.0,0.0,0.0,0.0,0.0,0.0,0.0,0.0,0.0,0.0,0.0,0.0,0.2103813559322034,0.0,0.0,0.0,0.0,1.0,0.9986038881518233
740,1,76,12.0,3,1.0,15.0,30.0,22079.03,13.0,9314.02,1.0,839.0,1.0,839.0,1.0,839.0,0.0,0.0,0.0,0.0,0.0,1.0,0.0,0.0,0.0,1.0,25.0,0.0,0.0,1.0,0.0,3.0,0.0,0.4218491482642127,0.0804046235296524,0.0,7.171353932584268,1.0,1.0,0.7637588361351785
419,1,0,0.0,866,0.0,30.0,62.0,81298.98,32.0,51464.14,0.0,0.0,1.0,988.73,2.0,2087.42,5.0,8395.6,0.0,1.0,0.0,0.0,0.0,0.0,0.0,0.0,6.0,0.0,0.0,1.0,0.0,6.0,7.0,0.6330231941409351,0.042019267483849175,0.103268208285024,0.0,0.0,0.0,0.39067314997256036
1899,2,2,418.0,1948,0.0,6.0,10.0,7285.15,6.0,3996.2,0.0,0.0,0.0,0.0,0.0,0.0,0.0,0.0,0.0,0.0,0.0,0.0,0.0,0.0,0.0,0.0,1.0,0.0,0.0,0.0,0.0,1.0,0.0,0.5485405242170717,0.0,0.0,0.0,0.0,0.0,0.14653821863946742
728,3,0,132.0,2286,0.0,3.0,6.0,5655.0,0.0,0.0,0.0,0.0,0.0,0.0,0.0,0.0,0.0,0.0,0.0,0.0,0.0,0.0,0.0,0.0,0.0,0.0,0.0,0.0,0.0,0.0,0.0,1.0,0.0,0.0,0.0,0.0,0.0,0.0,1.0,0.6072337301572504
2399,2,7,67.0,1638,0.0,23.0,36.0,62426.8,13.0,22829.26,0.0,0.0,2.0,2934.2,2.0,2934.2,5.0,12070.0,0.0,0.0,2.0,0.0,0.0,0.0,0.0,0.0,6.0,0.0,0.0,0.0,0.0,1.0,0.0,0.3656964636982834,0.1383276907360237,0.19334644735914702,0.0,0.0,0.0,0.4273432877649216
699,3,2,454.0,205,0.0,41.0,65.0,52510.17,22.0,18910.0,2.0,2563.0,5.0,6159.0,8.0,9617.07,4.0,4539.490000000002,4.0,0.0,0.0,1.0,1.0,0.0,0.0,1.0,2.0,0.0,0.0,0.0,0.0,14.0,5.0,0.3601207156632706,0.4858352012782337,0.08644972964284826,8.117508379888267,0.26650528695330283,1.0,0.6405498748598705
854,1,0,148.0,1429,0.0,28.0,45.0,33094.19,16.0,10374.6,0.0,0.0,0.0,0.0,2.0,1647.1,4.0,4024.0,0.0,0.0,0.0,0.0,0.0,0.0,0.0,0.0,14.0,0.0,1.0,0.0,0.0,3.0,1.0,0.313487050143847,0.15751120845181157,0.12159233992431903,0.0,0.0,1.0,0.6521757928562053
899,4,0,127.0,1429,0.0,28.0,45.0,33094.19,16.0,10374.6,0.0,0.0,0.0,0.0,2.0,1647.1,4.0,4024.0,0.0,0.0,0.0,0.0,0.0,0.0,0.0,0.0,14.0,0.0,1.0,0.0,0.0,3.0,1.0,0.313487050143847,0.15751120845181157,0.12159233992431903,0.0,0.0,0.0,0.11341660686447749
579,1,1,0.0,1583,0.0,38.0,98.0,67423.87,25.0,18210.57,0.0,0.0,0.0,0.0,0.0,0.0,1.0,1924.0,0.0,0.0,0.0,0.0,0.0,0.0,0.0,0.0,0.0,0.0,0.0,0.0,0.0,4.0,8.0,0.2700908446815646,0.0,0.028535887957781125,0.0,0.0,0.0,0.4871134106783993
728,1,1,16.0,1583,0.0,38.0,98.0,67423.87,25.0,18210.57,0.0,0.0,0.0,0.0,0.0,0.0,1.0,1924.0,0.0,0.0,0.0,0.0,0.0,0.0,0.0,0.0,0.0,0.0,0.0,0.0,0.0,4.0,8.0,0.2700908446815646,0.0,0.028535887957781125,0.0,0.0,0.0,0.264993779259221
601,1,5,0.0,1583,0.0,38.0,98.0,67423.87,25.0,18210.57,0.0,0.0,0.0,0.0,0.0,0.0,1.0,1924.0,0.0,0.0,0.0,0.0,0.0,0.0,0.0,0.0,0.0,0.0,0.0,0.0,0.0,4.0,8.0,0.2700908446815646,0.0,0.028535887957781125,0.0,0.0,1.0,0.5583799226033132
2099,2,5,77.0,487,0.0,69.0,97.0,86633.0,32.0,28246.84,3.0,3387.0,6.0,5938.0,7.0,6863.0,5.0,5380.88,1.0,1.0,3.0,1.0,0.0,0.0,2.0,1.0,4.0,0.0,0.0,0.0,0.0,8.0,0.0,0.3260517354818603,0.2390996980914617,0.06211120473722485,5.866219255219309,0.4935159551216669,1.0,0.7569607215717579
879,1,0,0.0,278,0.0,1.0,1.0,879.0,0.0,0.0,0.0,0.0,0.0,0.0,0.0,0.0,0.0,0.0,0.0,0.0,0.0,0.0,0.0,0.0,0.0,0.0,0.0,0.0,0.0,0.0,0.0,1.0,0.0,0.0,0.0,0.0,0.0,0.0,0.0,0.3975648009476532
899,1,25,0.0,782,0.0,16.0,35.0,38648.65,11.0,11107.79,0.0,0.0,0.0,0.0,0.0,0.0,2.0,1748.0,0.0,0.0,0.0,0.0,0.0,0.0,0.0,0.0,7.0,0.0,0.0,0.0,0.0,3.0,0.0,0.2874043465942536,0.0,0.04522797044657446,0.0,0.0,0.0,0.27034853571989353
1199,1,0,9.0,509,0.0,4.0,7.0,6445.2,1.0,1199.0,0.0,0.0,0.0,0.0,0.0,0.0,1.0,767.0,0.0,0.0,0.0,0.0,0.0,0.0,0.0,0.0,0.0,0.0,0.0,0.0,0.0,1.0,0.0,0.18602991373425184,0.0,0.11900328926953392,0.0,0.0,0.0,0.47930833882636903
499,1,5,0.0,1684,0.0,44.0,71.0,64460.44,17.0,16698.0,0.0,0.0,2.0,1741.6699999999996,2.0,1741.6699999999996,2.0,1498.0,0.0,0.0,1.0,1.0,0.0,0.0,0.0,0.0,1.0,0.0,0.0,0.0,0.0,2.0,0.0,0.2590426003918062,0.11707624739716972,0.023239059491371762,0.0,0.0,0.0,0.4616198943198558
559,2,23,169.0,875,0.0,261.0,544.0,492166.52000000025,146.0,159493.3,1.0,917.7,4.0,4340.7,10.0,17793.46,24.0,21612.95,1.0,0.0,1.0,2.0,1.0,0.0,0.0,0.0,30.0,1.0,1.0,0.0,0.0,20.0,75.0,0.32406369291434106,0.10730389768455602,0.043913897272004586,140.30874120984961,0.05157512928907588,1.0,0.9429538839418828
1999,5,3,219.0,2976,0.0,6.0,13.0,13687.0,4.0,4093.0,0.0,0.0,0.0,0.0,0.0,0.0,0.0,0.0,0.0,0.0,0.0,0.0,0.0,0.0,0.0,0.0,0.0,0.0,0.0,0.0,0.0,1.0,3.0,0.2990428874114123,0.0,0.0,0.0,0.0,1.0,0.511392456661525
419,2,0,174.0,323,0.0,57.0,83.0,51240.74,30.0,15682.79,0.0,0.0,0.0,0.0,2.0,627.9,5.0,3723.26,0.0,0.0,0.0,0.0,0.0,0.0,0.0,0.0,3.0,0.0,0.0,0.0,0.0,20.0,0.0,0.3060609585263601,0.03631702869262131,0.07266210441145074,0.0,0.0,0.0,0.15057615755632484
1979,1,0,31.0,262,0.0,4.0,5.0,7274.85,2.0,2791.04,0.0,0.0,0.0,0.0,0.0,0.0,0.0,0.0,0.0,0.0,0.0,0.0,0.0,0.0,0.0,0.0,0.0,0.0,0.0,0.0,0.0,2.0,0.0,0.383656020399046,0.0,0.0,0.0,0.0,0.0,0.27493134457056423
1187,1,10,0.0,76,1.0,59.0,120.0,52281.94666666667,42.0,19530.96,0.0,0.0,1.0,1615.04,1.0,1615.04,1.0,1187.0,0.0,0.0,1.0,0.0,0.0,0.0,0.0,0.0,10.0,0.0,0.0,0.0,0.0,2.0,4.0,0.37356986962484945,0.06999878992547497,0.0227038217908744,0.0,0.0,0.0,0.3871577516318588
628,1,0,0.0,1984,0.0,9.0,21.0,22019.1,2.0,4773.0,0.0,0.0,0.0,0.0,0.0,0.0,0.0,0.0,0.0,0.0,0.0,0.0,0.0,0.0,0.0,0.0,1.0,0.0,0.0,0.0,0.0,1.0,0.0,0.21676635284820908,0.0,0.0,0.0,0.0,1.0,0.5004776209521986
990,1,2,9.0,1569,0.0,20.0,36.0,27249.95,6.0,3883.0,0.0,0.0,0.0,0.0,0.0,0.0,0.0,0.0,0.0,0.0,0.0,0.0,0.0,0.0,0.0,0.0,2.0,0.0,0.0,0.0,0.0,1.0,0.0,0.14249567430398954,0.0,0.0,0.0,0.0,1.0,0.7051661192042814
1694,3,3,86.0,812,0.0,68.0,116.0,123453.33000000002,75.0,89239.83000000002,2.0,3646.93,5.0,7421.96,9.0,11236.99,10.0,7991.019999999998,1.0,0.0,3.0,1.0,1.0,0.0,0.0,1.0,24.0,1.0,1.0,0.0,0.0,8.0,36.0,0.7228628826780129,0.11266931407131524,0.06472907616181756,2.79075370894617,0.3245468759872528,1.0,0.5614492444043505
239,1,8,7.0,2115,0.0,17.0,38.0,38847.69,10.0,11427.84,0.0,0.0,0.0,0.0,0.0,0.0,0.0,0.0,0.0,0.0,0.0,0.0,0.0,0.0,0.0,0.0,1.0,0.0,0.0,0.0,0.0,2.0,11.0,0.2941703869650937,0.0,0.0,0.0,0.0,1.0,0.5469265858552624
801,1,1,0.0,3,0.0,1.0,5.0,6227.0,3.0,3977.0,0.0,0.0,0.0,0.0,0.0,0.0,0.0,0.0,0.0,0.0,0.0,0.0,0.0,0.0,0.0,0.0,4.0,0.0,0.0,0.0,0.0,1.0,0.0,0.6386703067287618,0.0,0.0,0.0,0.0,0.0,0.2218159746744214
3441,1,20,1.0,988,0.0,11.0,15.0,21078.25,6.0,6850.0,0.0,0.0,1.0,4212.0,1.0,4212.0,3.0,3387.0,0.0,1.0,0.0,0.0,0.0,0.0,0.0,0.0,2.0,0.0,0.0,0.0,0.0,4.0,1.0,0.32497954052162775,0.7114426423194861,0.1606869640506209,0.0,0.0,1.0,0.7437484554188518
1665,1,62,13.0,1394,0.0,5.0,16.0,21730.01,6.0,9894.15,0.0,0.0,0.0,0.0,0.0,0.0,0.0,0.0,0.0,0.0,0.0,0.0,0.0,0.0,0.0,0.0,0.0,0.0,0.0,0.0,0.0,1.0,0.0,0.45532192576073366,0.0,0.0,0.0,0.0,1.0,0.7083449528262301
439,1,1,347.0,1994,0.0,36.0,63.0,51757.44,21.0,14563.43,3.0,2158.95,3.0,2158.95,4.0,2709.15,1.0,817.95,0.0,0.0,0.0,3.0,0.0,0.0,0.0,3.0,9.0,0.0,1.0,0.0,0.0,5.0,2.0,0.28137848394356446,0.20852813026410563,0.015803525058426384,5.752729932801217,0.7969104700736392,0.0,0.3050951200233129
1231,2,0,599.0,1784,0.0,65.0,109.0,97595.1,21.0,23853.41,0.0,0.0,4.0,5125.2,4.0,5125.2,3.0,4003.0,1.0,0.0,1.0,2.0,0.0,0.0,0.0,0.0,2.0,0.0,0.0,0.0,0.0,4.0,6.0,0.2444119633055348,0.18723666240456657,0.04101640348747017,0.0,0.0,1.0,0.8493476610046847
